Visual Analysis - Hands-on_Ex07
…
top4 <- attacks_by_country$source_country[1:4]
top4_attacks <- attacks %>%
  filter(source_country %in% top4) %>%
  group_by(source_country, wkday, hour) %>% 
  count(source_country, wkday, hour) %>%
  ungroup() %>%
  mutate(source_country = factor(
    source_country, levels = top4)) %>%
  na.omit()

top4_attacks

# A tibble: 672 × 4
   source_country wkday    hour      n
   <fct>          <fct>    <fct> <int>
 1 CN             Saturday 0       438
 2 CN             Saturday 1       401
 3 CN             Saturday 2       358
 4 CN             Saturday 3       487
 5 CN             Saturday 4       457
 6 CN             Saturday 5       429
 7 CN             Saturday 6       393
 8 CN             Saturday 7       330
 9 CN             Saturday 8       421
10 CN             Saturday 9       361
# ℹ 662 more rows
…
