Visual Analysis - Take Home Exercise 2
…
MC2_graph_abnormal <- tbl_graph(nodes = MC2_node_abnormal,
                       edges = MC2_edge_irregular,
                       directed = TRUE)

MC2_graph_abnormal

# A tbl_graph: 150 nodes and 373 edges
#
# A directed acyclic multigraph with 1 component
#
# A tibble: 150 × 1
  id                                                
  <chr>                                             
1 Ancla Marina & Ltd. Liability Co Distribution     
2 Andhra Pradesh   Limited Liability Company Tilapia
3 AquaFresh Foods Sp Nori                           
4 Arena del Sol Corporation                         
5 Asiotr GmbH & Co. KG                              
6 Belgian Lobster AG Shoal                          
# ℹ 144 more rows
#
# A tibble: 373 × 5
   from    to Year  hscode Weight
  <int> <int> <fct> <chr>   <int>
1     1     5 2028  843139     15
2     1     5 2029  843139      9
3     1     5 2029  843149      4
# ℹ 370 more rows
…
