Visual Analysis - Hands-on_Ex04
…
exam_data

# A tibble: 322 × 7
   ID         CLASS GENDER RACE    ENGLISH MATHS SCIENCE
   <chr>      <chr> <chr>  <chr>     <dbl> <dbl>   <dbl>
 1 Student321 3I    Male   Malay        21     9      15
 2 Student305 3I    Female Malay        24    22      16
 3 Student289 3H    Male   Chinese      26    16      16
 4 Student227 3F    Male   Chinese      27    77      31
 5 Student318 3I    Male   Malay        27    11      25
 6 Student306 3I    Female Malay        31    16      16
 7 Student313 3I    Male   Chinese      31    21      25
 8 Student316 3I    Male   Malay        31    18      27
 9 Student312 3I    Male   Malay        33    19      15
10 Student297 3H    Male   Indian       34    49      37
# ℹ 312 more rows

Funnel Plots for Fair Comparisons

pacman::p_load(tidyverse, FunnelPlotR, plotly, knitr)

covid19 <- read_csv("data/COVID-19_DKI_Jakarta.csv") %>% 
  mutate_if(is.character,as.factor)
covid19

# A tibble: 267 × 7
   `Sub-district ID` City       District `Sub-district` Positive Recovered Death
               <dbl> <fct>      <fct>    <fct>             <dbl>     <dbl> <dbl>
 1        3172051003 JAKARTA U… PADEMAN… ANCOL              1776      1691    26
 2        3173041007 JAKARTA B… TAMBORA  ANGKE              1783      1720    29
 3        3175041005 JAKARTA T… KRAMAT … BALE KAMBANG       2049      1964    31
 4        3175031003 JAKARTA T… JATINEG… BALI MESTER         827       797    13
 5        3175101006 JAKARTA T… CIPAYUNG BAMBU APUS         2866      2792    27
 6        3174031002 JAKARTA S… MAMPANG… BANGKA             1828      1757    26
 7        3175051002 JAKARTA T… PASAR R… BARU               2541      2433    37
 8        3175041004 JAKARTA T… KRAMAT … BATU AMPAR         3608      3445    68
 9        3171071002 JAKARTA P… TANAH A… BENDUNGAN HIL…     2012      1937    38
10        3175031002 JAKARTA T… JATINEG… BIDARA CINA        2900      2773    52
# ℹ 257 more rows
…
